List the collections available in the msigdbr package — msigdbr_collections • msigdbr
…
    List the collections available in the msigdbr package

    Usage

msigdbr_collections()

    Value

    A data frame of the available collections.

    Examples

msigdbr_collections()
#> # A tibble: 23 × 3
#>    gs_cat gs_subcat         num_genesets
#>    <chr>  <chr>                    <int>
#>  1 C1     ""                         299
#>  2 C2     "CGP"                     3399
#>  3 C2     "CP"                        29
#>  4 C2     "CP:BIOCARTA"              292
#>  5 C2     "CP:KEGG"                  186
#>  6 C2     "CP:PID"                   196
#>  7 C2     "CP:REACTOME"             1635
#>  8 C2     "CP:WIKIPATHWAYS"          712
#>  9 C3     "MIR:MIRDB"               2377
#> 10 C3     "MIR:MIR_Legacy"           221
#> # ℹ 13 more rows
…
